finalproj
…
children_lik_2 <- children2 |>
  filter(dv_type==3) |>
  mutate(age_round = round(age_year, 1)) |>
  select(age_round, trial_type, response) |>
  count(age_round, trial_type, response) |>
  pivot_wider(names_from = response, values_from = n) 

children_lik_2[is.na(children_lik_2)] <- 0

children_lik_2

# A tibble: 136 × 5
   age_round trial_type Right Wrong `Kinda Right`
       <dbl> <chr>      <int> <int>         <int>
 1       3.1 X.X            2     1             0
 2       3.1 X.XandY        0     2             2
 3       3.1 X.XorY         1     1             2
 4       3.1 X.Z            0     2             3
 5       3.1 XY.X           1     1             2
 6       3.1 XY.XandY       1     1             2
 7       3.1 XY.XorY        2     1             1
 8       3.1 XY.Z           0     1             3
 9       3.3 X.X            2     0             0
10       3.3 X.XandY        0     2             0
# ℹ 126 more rows
…
The following object is masked from 'package:stats':

    ar

children_or <- children2 |>
  filter(dv_type==3) |>
  filter(trial_type=="XY.XorY") |>
  mutate(age_round = round(age_year, 1)) |>
  mutate(response_num = recode(response, "Right" = 1, "Kinda Right" = 2, "Wrong" = 3)) |>
  select(age_round, trial_type, response_num) 
            
children_or

# A tibble: 83 × 3
   age_round trial_type response_num
       <dbl> <chr>             <dbl>
 1       4.6 XY.XorY               1
 2       4.6 XY.XorY               2
 3       4.4 XY.XorY               1
 4       4.4 XY.XorY               1
 5       5   XY.XorY               1
 6       5   XY.XorY               1
 7       3.9 XY.XorY               3
 8       3.9 XY.XorY               3
 9       3.4 XY.XorY               1
10       3.4 XY.XorY               1
# ℹ 73 more rows
…
children_and <- children2 |>
  filter(dv_type==3) |>
  filter(trial_type=="X.XandY") |>
  mutate(age_round = round(age_year, 1)) |>
  mutate(response_num = recode(response, "Right" = 1, "Kinda Right" = 2, "Wrong" = 3)) |>
  select(age_round, trial_type, response_num) 
            
children_and

# A tibble: 83 × 3
   age_round trial_type response_num
       <dbl> <chr>             <dbl>
 1       4.6 X.XandY               2
 2       4.6 X.XandY               2
 3       4.4 X.XandY               3
 4       4.4 X.XandY               3
 5       5   X.XandY               2
 6       5   X.XandY               2
 7       3.9 X.XandY               3
 8       3.9 X.XandY               3
 9       3.4 X.XandY               1
10       3.4 X.XandY               1
# ℹ 73 more rows
…
children_or2 <- children2 |>
  filter(dv_type==3) |>
  filter(trial_type=="X.XorY") |>
  mutate(age_round = round(age_year, 1)) |>
  mutate(response_num = recode(response, "Right" = 1, "Kinda Right" = 2, "Wrong" = 3)) |>
  select(age_round, trial_type, response_num) 
            
children_or2

# A tibble: 83 × 3
   age_round trial_type response_num
       <dbl> <chr>             <dbl>
 1       4.6 X.XorY                1
 2       4.6 X.XorY                1
 3       4.4 X.XorY                3
 4       4.4 X.XorY                2
 5       5   X.XorY                1
 6       5   X.XorY                2
 7       3.9 X.XorY                3
 8       3.9 X.XorY                3
 9       3.4 X.XorY                1
10       3.4 X.XorY                1
# ℹ 73 more rows
…
